…
                    Mean   : 28.6                        Mean   :12.1     
                    3rd Qu.: 20.0                        3rd Qu.:20.0     
                    Max.   :100.0                        Max.   :70.0     
                    NA's   :1048050                      NA's   :1048140  
   species5         species5.percent      aspect           angle          
 Length:1048437     Min.   :10.0      Min.   : 0.0      Length:1048437    
 Class :character   1st Qu.:10.0      1st Qu.:10.0      Class :character  
 Mode  :character   Median :10.0      Median :30.0      Mode  :character  
                    Mean   :12.6      Mean   :28.7                        
                    3rd Qu.:20.0      3rd Qu.:40.0                        
                    Max.   :20.0      Max.   :80.0                        
                    NA's   :1048341   NA's   :1048008                     
################
na occurrence 
# A tibble: 36 x 3
   col_name              cnt  pcnt
   <chr>               <int> <dbl>
 1 species5.percent  1048341  100.
 2 percent.native    1048181  100.
 3 species4.percent  1048140  100.
 4 species3.percent  1048050  100.
 5 species2.percent  1048013  100.
 6 X21.height        1048008  100.
 7 X21.diameter      1048008  100.
 8 aspect            1048008  100.
 9 ntbg.accession    1048007  100.
10 ntbg.plant.number 1048007  100.
# ... with 26 more rows
…
