…
 Tectaria.sppSpp.   Vaccinium.calycinum Viola.wailenalenae      NA.     
 Min.   : 0.00000   Min.   : 0.00000    Min.   : 0.00000   Min.   :0    
 1st Qu.: 0.00000   1st Qu.: 0.00000    1st Qu.: 0.00000   1st Qu.:0    
 Median : 0.00000   Median : 0.00000    Median : 0.00000   Median :0    
 Mean   : 0.02326   Mean   : 0.06977    Mean   : 0.04651   Mean   :0    
 3rd Qu.: 0.00000   3rd Qu.: 0.00000    3rd Qu.: 0.00000   3rd Qu.:0    
 Max.   :10.00000   Max.   :20.00000    Max.   :10.00000   Max.   :0    
                                                           NA's   :332  
################
na occurrence 
# A tibble: 139 x 3
   col_name           cnt  pcnt
   <chr>            <int> <dbl>
 1 species5.percent   334 77.7 
 2 species5           332 77.2 
 3 NA.                332 77.2 
 4 comments           247 57.4 
 5 percent.native     174 40.5 
 6 species4.percent   133 30.9 
 7 species4           132 30.7 
 8 species3.percent    43 10   
 9 species3            42  9.77
10 gpslatdec           23  5.35
# ... with 129 more rows
################
numeric summaries 
# A tibble: 116 x 10
   col_name          min      q1  median    mean     q3    max      sd pcnt_na hist    
   <chr>           <dbl>   <dbl>   <dbl>   <dbl>  <dbl>  <dbl>   <dbl>   <dbl> <named >
 1 ntbg.accessi~ 2.02e+7 2.02e+7 2.02e+7 2.02e+7 2.02e7 2.02e7 1.28e+4   0     <tibble>
 2 ntbg.plant.n~ 1   e+0 5   e+1 2.84e+2 2.94e+2 5.1 e2 8.01e2 2.39e+2   0     <tibble>
 3 height.21     7.1 e+0 3.9 e+1 6.1 e+1 6.89e+1 8.6 e1 2.78e2 4.08e+1   0.233 <tibble>
 4 diameter.21   2   e-1 7   e-1 1   e+0 1.09e+0 1.3 e0 3.6 e0 5.57e-1   0.233 <tibble>
 5 canopy.cover  0       0       3   e+1 2.91e+1 5   e1 1   e2 2.96e+1   0     <tibble>
 6 percent.nati~ 0       8   e+1 1   e+2 8.36e+1 1   e2 1   e2 2.77e+1  40.5   <tibble>
 7 understory.d~ 0       2.5 e-1 5   e-1 6.94e-1 1   e0 2   e0 4.45e-1   0     <tibble>
 8 species1.per~ 0       2   e+1 4   e+1 4.31e+1 7   e1 1.2 e2 2.86e+1   0     <tibble>
 9 species2.per~ 0       1   e+1 2   e+1 2.07e+1 3   e1 8   e1 1.39e+1   1.40  <tibble>
10 species3.per~ 1   e+1 1   e+1 2   e+1 2.86e+1 2   e1 1   e2 3.04e+1  10     <tibble>
# ... with 106 more rows
